%template(FbxLayerElementTemplateVector2) FbxLayerElementTemplate<FbxVector2>;
%template(FbxLayerElementTemplateVector4) FbxLayerElementTemplate<FbxVector4>;
%template(FbxLayerElementTemplateColour) FbxLayerElementTemplate<FbxColor>;
